<?xml version="1.0" encoding="utf-8"?>
<!-- Generator: Adobe Illustrator 18.1.0, SVG Export Plug-In . SVG Version: 6.00 Build 0)  -->
<!DOCTYPE svg PUBLIC "-//W3C//DTD SVG 1.0//EN" "http://www.w3.org/TR/2001/REC-SVG-20010904/DTD/svg10.dtd">
<svg version="1.0" xmlns="http://www.w3.org/2000/svg" xmlns:xlink="http://www.w3.org/1999/xlink" x="0px" y="0px"
	 viewBox="0 0 300 250" enable-background="new 0 0 300 250" xml:space="preserve">

<g id="frame3">
	<g>
		<path fill="#FFFFFF" d="M17.9,35.2c0,4.4-6.2,5.6-6.2,8.8v1.2h6.2v1.4h-7.8V44c0-4.4,6.2-5.6,6.2-8.9v-1.3c0-1.3-1-2-2.3-2
			c-1.3,0-2.2,0.8-2.2,2V36h-1.6v-2.1c0-2.2,1.6-3.4,3.8-3.4c2.2,0,3.9,1.3,3.9,3.4V35.2z"/>
		<path fill="#FFFFFF" d="M26.6,37.5c2.2,0,3.9,1.3,3.9,3.4v2.4c0,2.2-1.7,3.4-3.9,3.4c-2.2,0-3.9-1.3-3.9-3.4v-9.4
			c0-2.2,1.7-3.4,3.9-3.4c2.2,0,3.8,1.3,3.8,3.4V36h-1.6v-2.1c0-1.3-0.9-2-2.2-2c-1.3,0-2.3,0.8-2.3,2v3.6H26.6z M28.9,40.9
			c0-1.3-1-2-2.3-2h-2.3v4.4c0,1.3,1,2,2.3,2c1.3,0,2.3-0.8,2.3-2V40.9z"/>
		<path fill="#FFFFFF" d="M41.9,30.6h1.6v15.9h-1.6V30.6z"/>
		<path fill="#FFFFFF" d="M57.1,30.6v15.9h-1.7l-5-12.4c0.1,1.6,0.1,2.7,0.1,4.3v8.1h-1.5V30.6h1.8l5,12.4c-0.1-1.6-0.1-2.7-0.1-4.3
			v-8.1H57.1z"/>
		<path fill="#FFFFFF" d="M68.7,32h-2.8v14.6h-1.6V32h-2.8v-1.4h7.2V32z"/>
		<path fill="#FFFFFF" d="M74.8,32v5.8h4.3v1.4h-4.3v6h5.3v1.4h-6.9V30.6h6.9V32H74.8z"/>
		<path fill="#FFFFFF" d="M92.9,30.6v15.9h-1.7l-5-12.4c0.1,1.6,0.1,2.7,0.1,4.3v8.1h-1.5V30.6h1.8l5,12.4c-0.1-1.6-0.1-2.7-0.1-4.3
			v-8.1H92.9z"/>
		<path fill="#FFFFFF" d="M105.6,43.4c0,2.2-1.7,3.3-3.9,3.3c-2.2,0-3.9-1.3-3.9-3.4v-2.4h1.6v2.4c0,1.3,1,2,2.3,2
			c1.3,0,2.3-0.7,2.3-1.9v-1.2c0-3.3-6-2.9-6-7.4v-1.3c0-2.1,1.6-3.2,3.8-3.2c2.2,0,3.8,1.3,3.8,3.4v2.4h-1.6v-2.4
			c0-1.3-0.9-2-2.2-2c-1.3,0-2.1,0.7-2.1,1.8v1.3c0,3.3,6.1,2.9,6.1,7.3V43.4z"/>
		<path fill="#FFFFFF" d="M112.1,32v5.8h4.3v1.4h-4.3v6h5.3v1.4h-6.9V30.6h6.9V32H112.1z"/>
		<path fill="#FFFFFF" d="M141.6,30.6l-3.1,16.1h-1.6l-2.3-12.8l-2.3,12.8h-1.7l-3.1-16.1h1.7l2.3,12.8l2.3-12.8h1.7l2.3,12.8
			l2.3-12.8H141.6z"/>
		<path fill="#FFFFFF" d="M145.7,33.9c0-2.2,1.7-3.4,3.9-3.4c2.2,0,3.9,1.3,3.9,3.4v9.4c0,2.2-1.7,3.4-3.9,3.4
			c-2.2,0-3.9-1.3-3.9-3.4V33.9z M151.9,33.9c0-1.3-1-2-2.3-2s-2.3,0.8-2.3,2v9.4c0,1.3,1,2,2.3,2s2.3-0.8,2.3-2V33.9z"/>
		<path fill="#FFFFFF" d="M166.6,46.6H165l-0.5-5.1c-0.2-1.7-1-2.1-2.3-2.1h-1.8v7.2h-1.6V30.6h4.1c2.2,0,3.6,1.2,3.6,3.2v1.9
			c0,1.6-0.8,2.6-2,3c0.9,0.3,1.5,1.1,1.7,2.6L166.6,46.6z M160.3,32V38h2.4c1.3,0,2-0.7,2-1.9v-2.2c0-1.1-0.7-1.9-2-1.9H160.3z"/>
		<path fill="#FFFFFF" d="M178.3,45.2v1.4h-6.8V30.6h1.7v14.6H178.3z"/>
		<path fill="#FFFFFF" d="M186.6,30.6c2.2,0,3.8,1.2,3.8,3.4v9.2c0,2.2-1.6,3.4-3.8,3.4h-4V30.6H186.6z M188.8,34c0-1.2-0.9-2-2.2-2
			h-2.3v13.2h2.3c1.3,0,2.2-0.7,2.2-2V34z"/>
		<path fill="#FFFFFF" d="M195.1,39.1v-1.3h5.7v1.3H195.1z"/>
		<path fill="#FFFFFF" d="M207.4,32v6.3h4.3v1.4h-4.3v6.9h-1.6V30.6h6.9V32H207.4z"/>
		<path fill="#FFFFFF" d="M221.8,42.2h-3.9l-0.9,4.4h-1.7l3.8-16.1h1.6l3.7,16.1h-1.7L221.8,42.2z M221.5,40.8l-1.6-7.6l-1.6,7.6
			H221.5z"/>
		<path fill="#FFFFFF" d="M238.3,30.6v15.9h-1.6v-8.1c0-1.6,0-2.7,0.1-4.3l-2.6,6.3h-1.4l-2.6-6.5c0.1,1.7,0.1,2.8,0.1,4.5v8.1h-1.5
			V30.6h1.7l3.1,7.6l3.1-7.6h1.5H238.3z"/>
		<path fill="#FFFFFF" d="M243.4,33.9c0-2.2,1.7-3.4,3.9-3.4c2.2,0,3.9,1.3,3.9,3.4v9.4c0,2.2-1.7,3.4-3.9,3.4
			c-2.2,0-3.9-1.3-3.9-3.4V33.9z M249.6,33.9c0-1.3-1-2-2.3-2s-2.3,0.8-2.3,2v9.4c0,1.3,1,2,2.3,2s2.3-0.8,2.3-2V33.9z"/>
		<path fill="#FFFFFF" d="M264.1,30.6v12.7c0,2.2-1.7,3.4-3.9,3.4c-2.2,0-3.9-1.3-3.9-3.4V30.6h1.7v12.7c0,1.3,1,2,2.3,2
			c1.3,0,2.3-0.7,2.3-2V30.6H264.1z"/>
		<path fill="#FFFFFF" d="M276.8,43.4c0,2.2-1.7,3.3-3.9,3.3s-3.9-1.3-3.9-3.4v-2.4h1.6v2.4c0,1.3,1,2,2.3,2c1.3,0,2.3-0.7,2.3-1.9
			v-1.2c0-3.3-6-2.9-6-7.4v-1.3c0-2.1,1.6-3.2,3.8-3.2c2.2,0,3.8,1.3,3.8,3.4v2.4h-1.6v-2.4c0-1.3-0.9-2-2.2-2
			c-1.3,0-2.1,0.7-2.1,1.8v1.3c0,3.3,6.1,2.9,6.1,7.3V43.4z"/>
		<path fill="#FFFFFF" d="M82.3,58c2.2,0,3.8,1.2,3.8,3.4v9.2c0,2.2-1.6,3.4-3.8,3.4h-4V58H82.3z M84.4,61.3c0-1.2-0.9-2-2.2-2h-2.3
			v13.2h2.3c1.3,0,2.2-0.7,2.2-2V61.3z"/>
		<path fill="#FFFFFF" d="M92.9,59.3v5.8h4.3v1.4h-4.3v6h5.3v1.4h-6.9V58h6.9v1.4H92.9z"/>
		<path fill="#FFFFFF" d="M110.1,70.8c0,2.2-1.7,3.3-3.9,3.3c-2.2,0-3.9-1.3-3.9-3.4v-2.4h1.6v2.4c0,1.3,1,2,2.3,2
			c1.3,0,2.3-0.7,2.3-1.9v-1.2c0-3.3-6-2.9-6-7.4V61c0-2.1,1.6-3.2,3.8-3.2c2.2,0,3.8,1.3,3.8,3.4v2.4h-1.6v-2.4c0-1.3-0.9-2-2.2-2
			c-1.3,0-2.1,0.7-2.1,1.8v1.3c0,3.3,6.1,2.9,6.1,7.3V70.8z"/>
		<path fill="#FFFFFF" d="M121.1,59.3h-2.8v14.6h-1.6V59.3h-2.8V58h7.2V59.3z"/>
		<path fill="#FFFFFF" d="M125.6,58h1.6v15.9h-1.6V58z"/>
		<path fill="#FFFFFF" d="M140.8,58v15.9h-1.7l-5-12.4c0.1,1.6,0.1,2.7,0.1,4.3v8.1h-1.5V58h1.8l5,12.4c-0.1-1.6-0.1-2.7-0.1-4.3V58
			H140.8z"/>
		<path fill="#FFFFFF" d="M151.6,69.5h-3.9l-0.9,4.4H145l3.8-16.1h1.6l3.7,16.1h-1.7L151.6,69.5z M151.2,68.2l-1.6-7.6l-1.6,7.6
			H151.2z"/>
		<path fill="#FFFFFF" d="M164,59.3h-2.8v14.6h-1.6V59.3h-2.8V58h7.2V59.3z"/>
		<path fill="#FFFFFF" d="M168.5,58h1.6v15.9h-1.6V58z"/>
		<path fill="#FFFFFF" d="M175.2,61.2c0-2.2,1.7-3.4,3.9-3.4c2.2,0,3.9,1.3,3.9,3.4v9.4c0,2.2-1.7,3.4-3.9,3.4
			c-2.2,0-3.9-1.3-3.9-3.4V61.2z M181.4,61.2c0-1.3-1-2-2.3-2s-2.3,0.8-2.3,2v9.4c0,1.3,1,2,2.3,2s2.3-0.8,2.3-2V61.2z"/>
		<path fill="#FFFFFF" d="M196.3,58v15.9h-1.7l-5-12.4c0.1,1.6,0.1,2.7,0.1,4.3v8.1h-1.5V58h1.8l5,12.4c-0.1-1.6-0.1-2.7-0.1-4.3V58
			H196.3z"/>
		<path fill="#FFFFFF" d="M209.1,70.8c0,2.2-1.7,3.3-3.9,3.3s-3.9-1.3-3.9-3.4v-2.4h1.6v2.4c0,1.3,1,2,2.3,2c1.3,0,2.3-0.7,2.3-1.9
			v-1.2c0-3.3-6-2.9-6-7.4V61c0-2.1,1.6-3.2,3.8-3.2c2.2,0,3.8,1.3,3.8,3.4v2.4h-1.6v-2.4c0-1.3-0.9-2-2.2-2c-1.3,0-2.1,0.7-2.1,1.8
			v1.3c0,3.3,6.1,2.9,6.1,7.3V70.8z"/>
	</g>
</g>

</svg>
